<svg width="1440" height="1060" viewBox="0 0 1440 1060" fill="none" xmlns="http://www.w3.org/2000/svg">
<g clip-path="url(#clip0_37_6)">
<path d="M1440 341H-4.39693e-05V47.5035C9.09146 47.167 15.977 42.8608 6.95234 33.1718C9.09151 23.6173 71.9297 35.0558 29.0125 36.4015C30.0821 39.7657 60.1643 32.4316 69.2558 35.5268C67.0498 31.1532 72.6651 22.0025 79.4837 17.5617C69.0552 11.2369 72.3309 10.564 127.749 21.0605C138.846 14.1974 165.586 8.68006 169.998 12.7172C179.958 3.02813 224.814 7.80536 215.589 5.18125C248.211 0.404017 199.679 10.6986 261.581 9.15106C268.935 12.7844 283.307 23.6846 289.257 8.9492C299.485 -13.7931 308.309 15.0048 320.743 8.9492C331.372 6.66152 341.065 40.8423 350.624 11.1023C360.184 27.7217 369.476 24.0883 379.303 21.4642C388.06 28.731 395.213 33.9119 404.505 34.3156C413.931 31.8934 421.084 45.2831 431.245 41.3805C447.155 49.051 460.324 22.8099 472.09 59.7493C477.839 90.7677 479.777 54.0974 487.732 71.7933C497.893 73.4755 508.923 110.549 518.483 81.4151C527.307 85.3849 521.357 80.9441 523.831 92.1807C526.839 91.1041 538.003 115.596 546.092 98.169C560.264 93.0554 574.436 99.4474 588.608 98.169C598.167 97.3616 609.465 91.1714 620.361 99.6493C631.324 109.877 641.953 101.937 650.31 91.9115C657.797 73.139 661.741 71.4569 670.231 73.4755C679.255 86.7979 690.018 73.139 699.511 69.7075C702.452 55.2412 705.527 84.9139 708.468 69.9766C712.881 64.1228 717.493 60.0857 721.905 67.7562C730.061 68.0927 743.23 73.8119 750.517 65.9395C754.996 31.4897 756.934 46.4269 761.614 58.5382C771.173 59.3456 786.281 43.13 796.576 53.29C805.868 51.406 805.801 49.5893 812.152 61.095C817.165 97.0925 825.722 79.1947 832.808 73.0045C838.022 73.2063 838.958 86.7979 842.568 77.5798C853.13 58.6728 861.486 74.6193 874.723 91.6424C882.277 93.4591 892.037 96.4869 899.189 96.2178C902.265 110.011 904.671 98.169 907.88 101.601C915.969 97.8326 925.461 103.619 933.483 102.946C939.232 101.937 940.703 108.464 946.786 110.549C951.599 103.014 958.017 95.0739 962.897 110.348C972.657 107.252 983.018 134.166 993.38 109.473C1003.74 108.665 1013.97 116.672 1023.4 112.366C1035.23 126.025 1048.73 114.385 1060.7 110.348C1074.94 112.03 1085.43 120.306 1100.67 110.482C1110.5 99.7166 1120.46 84.241 1130.42 110.886C1140.38 118.556 1150.34 114.519 1160.17 110.482C1168.53 113.981 1168.26 111.088 1176.88 102.61C1190.79 99.3801 1199.48 92.5171 1213.45 86.125C1224.14 90.4985 1223.27 78.791 1230.23 73.0045C1229.89 68.7655 1233.9 45.0139 1242.59 46.7633C1254.03 56.8561 1259.44 60.8932 1268.06 42.3225C1281.23 39.0256 1287.12 40.0348 1292.93 41.3805C1310.11 32.6335 1307.5 76.0996 1311.25 40.775C1327.23 24.963 1325.02 20.5222 1331.9 29.3365C1347.81 40.775 1358.44 26.5106 1370.21 29.1347C1391.6 30.5477 1388.46 47.3689 1397.22 33.2391C1397.35 32.9699 1397.35 32.7008 1397.35 32.3644C1397.95 33.5755 1398.69 35.123 1399.76 37.0743C1406.64 40.304 1414.93 43.0627 1413.26 37.2762C1420.75 36.536 1430.64 41.9861 1434.72 37.4107C1436.66 37.5453 1436.79 38.3527 1440 37.5453V200.106V200.173V243.572C1438.93 248.013 1438.53 251.511 1440 255.279V341Z" fill="#131882"/>
</g>
<g clip-path="url(#clip1_37_6)">
<path d="M-1.14722 781.798C-0.855517 784.398 -0.76136 787.069 -1.06662 789.47L-0.405269 852.428C0.397888 853.379 0.999177 853.989 1.26498 854.123C0.94676 855.291 0.298092 856.463 -0.349857 857.703L-0.233994 868.732C0.0971768 868.797 0.296167 868.864 0.693428 868.928C2.08276 869.051 1.36369 869.812 -0.211685 870.856L1.19666 1004.92C10.6555 1005.58 20.0281 1004.31 27.4459 999.44C46.7878 984.507 53.3734 1001.09 58.4422 999.115C78.5572 994.861 93.244 977.236 92.9155 1002.59C101.922 1004.28 95.7845 992.556 112.246 1005.47C125.064 998.689 110.256 1011.11 118.772 1010.06C109.458 1004.33 128.581 1012.56 128.719 1013.18C131.815 1012.18 133.789 1011.27 135.102 1010.44C135.585 1012.35 137.268 1015.28 141.608 1019.48C159.123 1038.27 154.466 1029.07 161.102 1031.61C170.728 1029.25 169.594 1040.84 175.938 1040.7C190.849 1031.84 203.205 1031.51 205.089 1040.94C219.286 1052.17 212.046 1036.21 220.291 1040.92C223.31 1038.83 231.286 1030.46 231.822 1037.44C232.333 1035.79 242.329 1030.96 240.689 1044.68C250.608 1051.36 254.749 1068.1 257.153 1045.19C278.81 1043.05 296.5 1028.13 318.997 1030.43C329.093 1035.12 335.933 1019.29 344.677 1021.12C354.802 1009.7 362.673 991.328 374.722 999.424C378.577 982.597 382.597 1006.6 386.548 998.888C391.161 997.607 392.136 996.02 396.825 995.629C406.695 1016.56 414.364 1004.15 423.161 985.897C436.022 970.552 454.832 980.494 468.996 982.332C483.216 983.211 494.929 1003.37 507.709 993.025C528.457 1004.93 549.853 1009.37 568.938 1014.03C576.261 1012.79 582.228 1014.44 590.662 1018.26C601.829 1005.33 612.589 1048.1 623.477 1021.13C633.619 1036.51 643.451 1016.06 653.479 1020.61C664.938 1035.5 675.973 1016.27 687.112 1025.88C708.004 1051.56 729.568 1034.2 750.866 1029.32C762.641 1042.76 771.734 1008.61 783.057 1016.85C790.736 1017.94 797.343 1017.73 805.037 1013.95C814.852 1010.76 824.373 1004.7 834.2 1002.68C851.563 981.876 867.527 985.134 886.553 996.719C902.782 993.808 918.871 983.841 935.262 996.276C947.341 1007.25 958.428 993.086 970.453 992.617C982.612 992.353 994.856 993.868 1007 992.165C1019.19 994.709 1031.32 985.332 1043.55 991.987C1056.44 992.125 1068.33 991.589 1080.92 994.746C1092.25 997.162 1099.32 977.629 1109.48 1007.81C1117.73 1012.38 1125.08 1019.7 1137.02 1018.34C1142.44 1024.45 1153.79 1010.22 1163.51 1016.21C1179.96 1009.81 1179.78 1010.7 1195.69 1015.19C1211.84 1011.8 1214.88 999.025 1223.12 1015.59C1256.62 1020.65 1243.14 1033.53 1287.73 1011.89C1302.41 981.114 1302.23 1014.28 1338.08 1004.38C1373.87 1001.53 1338.38 1008.28 1357.08 1007.4C1373.95 1014.96 1376.91 1001.23 1395.48 1006.72C1409.56 1001.02 1397.9 998.062 1415.67 1009.73C1424.03 1012.93 1436.21 1008.83 1441.22 1007.34L1439.23 817.984C1431.67 815.049 1431.06 813.479 1439.17 812.161L1437.88 689.397L-1.95898 704.522L-1.14722 781.798Z" fill="#131882"/>
</g>
<rect y="114" width="1440" height="860" fill="#131882"/>
<g style="mix-blend-mode:overlay">
<line y1="199.327" x2="1440" y2="199.327" stroke="white" stroke-opacity="0.5" stroke-width="3"/>
</g>
<g style="mix-blend-mode:overlay">
<line y1="288.222" x2="1440" y2="288.222" stroke="white" stroke-opacity="0.5" stroke-width="3"/>
</g>
<g style="mix-blend-mode:overlay">
<line y1="546.635" x2="1440" y2="546.635" stroke="white" stroke-opacity="0.5" stroke-width="3"/>
</g>
<g style="mix-blend-mode:overlay">
<line y1="635.529" x2="1440" y2="635.529" stroke="white" stroke-opacity="0.5" stroke-width="3"/>
</g>
<g style="mix-blend-mode:overlay">
<line y1="372.98" x2="1440" y2="372.98" stroke="white" stroke-opacity="0.5" stroke-width="3"/>
</g>
<g style="mix-blend-mode:overlay">
<line y1="461.875" x2="1440" y2="461.875" stroke="white" stroke-opacity="0.5" stroke-width="3"/>
</g>
<g style="mix-blend-mode:overlay">
<line y1="720.289" x2="1440" y2="720.289" stroke="white" stroke-opacity="0.5" stroke-width="3"/>
</g>
<g style="mix-blend-mode:overlay">
<line y1="809.184" x2="1440" y2="809.184" stroke="white" stroke-opacity="0.5" stroke-width="3"/>
</g>
<g style="mix-blend-mode:overlay">
<line y1="889.808" x2="1440" y2="889.808" stroke="white" stroke-opacity="0.5" stroke-width="3"/>
</g>
<g style="mix-blend-mode:overlay">
<line x1="682.5" y1="82" x2="682.5" y2="1021" stroke="white" stroke-opacity="0.5" stroke-width="3"/>
</g>
<g style="mix-blend-mode:overlay">
<line x1="596.5" y1="96" x2="596.5" y2="1014" stroke="white" stroke-opacity="0.5" stroke-width="3"/>
</g>
<g style="mix-blend-mode:overlay">
<line x1="346.5" y1="23" x2="346.5" y2="1014" stroke="white" stroke-opacity="0.5" stroke-width="3"/>
</g>
<g style="mix-blend-mode:overlay">
<line x1="260.5" y1="10" x2="260.5" y2="1040" stroke="white" stroke-opacity="0.5" stroke-width="3"/>
</g>
<g style="mix-blend-mode:overlay">
<line x1="514.5" y1="96" x2="514.5" y2="989" stroke="white" stroke-opacity="0.5" stroke-width="3"/>
</g>
<g style="mix-blend-mode:overlay">
<path d="M428.5 46L428.5 974" stroke="white" stroke-opacity="0.5" stroke-width="3"/>
</g>
<g style="mix-blend-mode:overlay">
<line x1="178.5" y1="10" x2="178.5" y2="1035" stroke="white" stroke-opacity="0.5" stroke-width="3"/>
</g>
<g style="mix-blend-mode:overlay">
<line x1="92.5" y1="16" x2="92.5" y2="996" stroke="white" stroke-opacity="0.5" stroke-width="3"/>
</g>
<g style="mix-blend-mode:overlay">
<line x1="1358.5" y1="33" x2="1358.5" y2="1005" stroke="white" stroke-opacity="0.5" stroke-width="3"/>
</g>
<g style="mix-blend-mode:overlay">
<path d="M1273 43L1273 1014" stroke="white" stroke-opacity="0.5" stroke-width="3"/>
</g>
<g style="mix-blend-mode:overlay">
<line x1="1022.5" y1="114" x2="1022.5" y2="991" stroke="white" stroke-opacity="0.5" stroke-width="3"/>
</g>
<g style="mix-blend-mode:overlay">
<path d="M936.5 106L936.5 991" stroke="white" stroke-opacity="0.5" stroke-width="3"/>
</g>
<g style="mix-blend-mode:overlay">
<path d="M1190.5 104L1190.5 1005" stroke="white" stroke-opacity="0.5" stroke-width="3"/>
</g>
<g style="mix-blend-mode:overlay">
<line x1="1104.5" y1="114" x2="1104.5" y2="991" stroke="white" stroke-opacity="0.5" stroke-width="3"/>
</g>
<g style="mix-blend-mode:overlay">
<line x1="854.5" y1="76" x2="854.5" y2="994.953" stroke="white" stroke-opacity="0.5" stroke-width="3"/>
</g>
<g style="mix-blend-mode:overlay">
<path d="M768.5 60L768.5 1021" stroke="white" stroke-opacity="0.5" stroke-width="3"/>
</g>
<defs>
<clipPath id="clip0_37_6">
<rect width="1440" height="341" fill="white" transform="matrix(-1 0 0 1 1440 0)"/>
</clipPath>
<clipPath id="clip1_37_6">
<rect width="1439.92" height="355.02" fill="white" transform="translate(-1.95898 704.522) rotate(-0.601858)"/>
</clipPath>
</defs>
</svg>
