<svg width="41" height="40" viewBox="0 0 41 40" fill="none" xmlns="http://www.w3.org/2000/svg">
<path d="M20.7074 40C31.8191 40 40.827 31.0457 40.827 20C40.827 8.9543 31.8191 0 20.7074 0C9.59571 0 0.587891 8.9543 0.587891 20C0.587891 31.0457 9.59571 40 20.7074 40Z" fill="#3668FF"/>
<path d="M16.642 31.5199C26.4693 31.5199 31.8434 23.4281 31.8434 16.4088C31.8434 16.1777 31.8375 15.9496 31.8285 15.7214C32.8718 14.9718 33.7779 14.0355 34.4933 12.9718C33.5365 13.3955 32.5051 13.6799 31.4261 13.8074C32.529 13.1496 33.3755 12.1096 33.7749 10.8711C32.7436 11.4785 31.599 11.9229 30.3829 12.1599C29.4082 11.1288 28.0192 10.4829 26.4842 10.4829C23.5333 10.4829 21.1398 12.8622 21.1398 15.7925C21.1398 16.2103 21.1875 16.6133 21.277 17.0044C16.8358 16.7822 12.8983 14.6696 10.2664 11.4548C9.80733 12.2399 9.54205 13.1525 9.54205 14.1244C9.54205 15.9674 10.4839 17.594 11.9206 18.5451C11.0443 18.5185 10.2216 18.2785 9.50032 17.8814C9.50032 17.9022 9.50032 17.9259 9.50032 17.9496C9.50032 20.5214 11.3424 22.6696 13.7865 23.1555C13.3364 23.277 12.8655 23.3422 12.3796 23.3422C12.0369 23.3422 11.7001 23.3096 11.3752 23.2474C12.0548 25.357 14.028 26.8918 16.3648 26.9362C14.5347 28.3614 12.2336 29.2088 9.72983 29.2088C9.29763 29.2088 8.87438 29.1851 8.4541 29.1348C10.8148 30.6399 13.6226 31.5199 16.642 31.5199Z" fill="#131882"/>
</svg>
